#---------------------------------------------------------
# Personas
#---------------------------------------------------------

total.personas = 2

persona1.id=000
persona1.nombre = admin
persona1.apellido = admin
persona1.imagen = file:///C:/Users/Evelyn/Desktop/businessman-2956974_1920.jpg
persona1.correo = administrador
persona1.contrasena = admin

persona2.id=001
persona2.nombre = admin2
persona2.apellido = admin2
persona2.imagen = file:///C:/Users/Evelyn/Desktop/businessman-2956974_1920.jpg
persona2.correo = admin2
persona2.contrasena = admin2

